fsm/simulation/qsim/fsm.msim.vcd
$comment
	File created using the following command:
		vcd file fsm.msim.vcd -direction
$end
$date
	Mon Dec 04 01:25:34 2023
$end
$version
	ModelSim Version 10.1d
$end
$timescale
	1ps
$end
$scope module fsm_vlg_vec_tst $end
$var reg 1 ! clk $end
$var reg 1 " data_in $end
$var reg 1 # reset $end
$var wire 1 $ current_state [3] $end
$var wire 1 % current_state [2] $end
$var wire 1 & current_state [1] $end
$var wire 1 ' current_state [0] $end
$var wire 1 ( student_id [3] $end
$var wire 1 ) student_id [2] $end
$var wire 1 * student_id [1] $end
$var wire 1 + student_id [0] $end
$var wire 1 , sampler $end
$scope module i1 $end
$var wire 1 - gnd $end
$var wire 1 . vcc $end
$var wire 1 / unknown $end
$var tri1 1 0 devclrn $end
$var tri1 1 1 devpor $end
$var tri1 1 2 devoe $end
$var wire 1 3 clk~combout $end
$var wire 1 4 clk~clkctrl_outclk $end
$var wire 1 5 yfsm.s1~0_combout $end
$var wire 1 6 reset~combout $end
$var wire 1 7 reset~clkctrl_outclk $end
$var wire 1 8 data_in~combout $end
$var wire 1 9 yfsm.s1~regout $end
$var wire 1 : yfsm.s2~feeder_combout $end
$var wire 1 ; yfsm.s2~regout $end
$var wire 1 < yfsm.s3~feeder_combout $end
$var wire 1 = yfsm.s3~regout $end
$var wire 1 > yfsm.s4~regout $end
$var wire 1 ? yfsm.s5~feeder_combout $end
$var wire 1 @ yfsm.s5~regout $end
$var wire 1 A yfsm.s6~feeder_combout $end
$var wire 1 B yfsm.s6~regout $end
$var wire 1 C yfsm.s7~feeder_combout $end
$var wire 1 D yfsm.s7~regout $end
$var wire 1 E yfsm.s8~feeder_combout $end
$var wire 1 F yfsm.s8~regout $end
$var wire 1 G yfsm.s9~regout $end
$var wire 1 H yfsm.s10~regout $end
$var wire 1 I yfsm.s0~0_combout $end
$var wire 1 J yfsm.s0~regout $end
$var wire 1 K WideOr12~0_combout $end
$var wire 1 L WideOr12~combout $end
$var wire 1 M student_id~0_combout $end
$var wire 1 N student_id~1_combout $end
$var wire 1 O WideOr16~combout $end
$var wire 1 P WideOr15~combout $end
$var wire 1 Q WideOr14~combout $end
$var wire 1 R WideOr13~0_combout $end
$upscope $end
$upscope $end
$enddefinitions $end
#0
$dumpvars
0!
1"
0#
1'
1&
0%
1$
0+
0*
0)
0(
x,
0-
1.
x/
10
11
12
03
04
15
06
07
18
09
0:
0;
0<
0=
0>
0?
0@
0A
0B
0C
0D
0E
0F
0G
0H
1I
0J
1K
1L
0M
1N
0O
0P
0Q
1R
$end
#10000
1!
13
14
0,
1J
19
0L
05
0K
1:
1Q
1L
1+
1%
0+
#20000
0!
03
04
1,
#30000
1!
13
14
0,
1;
09
0N
1<
0R
1K
0:
1P
1O
0Q
0L
0$
1)
0%
0&
0'
1+
#40000
0!
03
04
1,
#50000
1!
13
14
0,
1=
0;
1L
1N
0<
0O
0+
0)
1'
#60000
0!
03
04
1,
#70000
1!
13
14
0,
1>
0=
1O
1?
0P
0L
0'
1&
1+
#80000
0!
03
04
1,
#90000
1!
13
14
0,
1@
0>
1A
0O
0?
1'
#100000
0!
03
04
1,
#110000
1!
13
14
0,
1B
0@
1Q
0N
1M
1C
0A
1P
1O
1%
1*
1)
0&
0'
#120000
0!
03
04
1,
#130000
1!
13
14
0,
1D
0B
0K
1E
0Q
1N
0M
0C
1Q
1L
0O
0%
0*
0)
1%
0+
1'
#140000
0!
03
04
1,
#150000
1!
13
14
0,
1F
0D
1O
1M
0P
0E
1*
0'
1&
#160000
0!
03
04
1,
#170000
1!
13
14
0,
1G
0F
0O
0M
1K
0L
0*
1'
1+
#180000
0!
03
04
1,
#190000
1!
13
14
0,
1H
0G
1R
1P
1O
0I
0Q
1$
0%
0&
0'
#200000
0!
03
04
1,
#210000
1!
13
14
0,
0J
0H
1L
15
0P
0O
1I
0+
1&
1'
#220000
0!
03
04
1,
#230000
1!
13
14
0,
1J
19
0L
05
0K
1:
1Q
1L
1+
1%
0+
#240000
0!
03
04
1,
#250000
1!
13
14
0,
1;
09
0N
1<
0R
1K
0:
1P
1O
0Q
0L
0$
1)
0%
0&
0'
1+
#260000
0!
03
04
1,
#270000
1!
13
14
0,
1=
0;
1L
1N
0<
0O
0+
0)
1'
#280000
0!
03
04
1,
#290000
1!
13
14
0,
1>
0=
1O
1?
0P
0L
0'
1&
1+
#300000
0!
03
04
1,
#310000
1!
13
14
0,
1@
0>
1A
0O
0?
1'
#320000
0!
03
04
1,
#330000
1!
13
14
0,
1B
0@
1Q
0N
1M
1C
0A
1P
1O
1%
1*
1)
0&
0'
#340000
0!
03
04
1,
#350000
1!
13
14
0,
1D
0B
0K
1E
0Q
1N
0M
0C
1Q
1L
0O
0%
0*
0)
1%
0+
1'
#360000
0!
03
04
1,
#370000
1!
13
14
0,
1F
0D
1O
1M
0P
0E
1*
0'
1&
#380000
0!
03
04
1,
#390000
1!
13
14
0,
1G
0F
0O
0M
1K
0L
0*
1'
1+
#400000
0!
03
04
1,
#410000
1!
13
14
0,
1H
0G
1R
1P
1O
0I
0Q
1$
0%
0&
0'
#420000
0!
03
04
1,
#430000
1!
13
14
0,
0J
0H
1L
15
0P
0O
1I
0+
1&
1'
#440000
0!
03
04
1,
#450000
1!
13
14
0,
1J
19
0L
05
0K
1:
1Q
1L
1+
1%
0+
#460000
0!
03
04
1,
#470000
1!
13
14
0,
1;
09
0N
1<
0R
1K
0:
1P
1O
0Q
0L
0$
1)
0%
0&
0'
1+
#480000
0!
03
04
1,
#490000
1!
13
14
0,
1=
0;
1L
1N
0<
0O
0+
0)
1'
#500000
0!
03
04
1,
#510000
1!
13
14
0,
1>
0=
1O
1?
0P
0L
0'
1&
1+
#520000
0!
03
04
1,
#530000
1!
13
14
0,
1@
0>
1A
0O
0?
1'
#540000
0!
03
04
1,
#550000
1!
13
14
0,
1B
0@
1Q
0N
1M
1C
0A
1P
1O
1%
1*
1)
0&
0'
#560000
0!
03
04
1,
#570000
1!
13
14
0,
1D
0B
0K
1E
0Q
1N
0M
0C
1Q
1L
0O
0%
0*
0)
1%
0+
1'
#580000
0!
03
04
1,
#590000
1!
13
14
0,
1F
0D
1O
1M
0P
0E
1*
0'
1&
#600000
0!
03
04
1,
#610000
1!
13
14
0,
1G
0F
0O
0M
1K
0L
0*
1'
1+
#620000
0!
03
04
1,
#630000
1!
13
14
0,
1H
0G
1R
1P
1O
0I
0Q
1$
0%
0&
0'
#640000
0!
03
04
1,
#650000
1!
13
14
0,
0J
0H
1L
15
0P
0O
1I
0+
1&
1'
#660000
0!
03
04
1,
#670000
1!
13
14
0,
1J
19
0L
05
0K
1:
1Q
1L
1+
1%
0+
#680000
0!
03
04
1,
#690000
1!
13
14
0,
1;
09
0N
1<
0R
1K
0:
1P
1O
0Q
0L
0$
1)
0%
0&
0'
1+
#700000
0!
03
04
1,
#710000
1!
13
14
0,
1=
0;
1L
1N
0<
0O
0+
0)
1'
#720000
0!
03
04
1,
#730000
1!
13
14
0,
1>
0=
1O
1?
0P
0L
0'
1&
1+
#740000
0!
03
04
1,
#750000
1!
13
14
0,
1@
0>
1A
0O
0?
1'
#760000
0!
03
04
1,
#770000
1!
13
14
0,
1B
0@
1Q
0N
1M
1C
0A
1P
1O
1%
1*
1)
0&
0'
#780000
0!
03
04
1,
#790000
1!
13
14
0,
1D
0B
0K
1E
0Q
1N
0M
0C
1Q
1L
0O
0%
0*
0)
1%
0+
1'
#800000
0!
03
04
1,
#810000
1!
13
14
0,
1F
0D
1O
1M
0P
0E
1*
0'
1&
#820000
0!
03
04
1,
#830000
1!
13
14
0,
1G
0F
0O
0M
1K
0L
0*
1'
1+
#840000
0!
03
04
1,
#850000
1!
13
14
0,
1H
0G
1R
1P
1O
0I
0Q
1$
0%
0&
0'
#860000
0!
03
04
1,
#870000
1!
13
14
0,
0J
0H
1L
15
0P
0O
1I
0+
1&
1'
#880000
0!
03
04
1,
#890000
1!
13
14
0,
1J
19
0L
05
0K
1:
1Q
1L
1+
1%
0+
#900000
0!
03
04
1,
#910000
1!
13
14
0,
1;
09
0N
1<
0R
1K
0:
1P
1O
0Q
0L
0$
1)
0%
0&
0'
1+
#920000
0!
03
04
1,
#930000
1!
13
14
0,
1=
0;
1L
1N
0<
0O
0+
0)
1'
#940000
0!
03
04
1,
#950000
1!
13
14
0,
1>
0=
1O
1?
0P
0L
0'
1&
1+
#960000
0!
03
04
1,
#970000
1!
13
14
0,
1@
0>
1A
0O
0?
1'
#980000
0!
03
04
1,
#990000
1!
13
14
0,
1B
0@
1Q
0N
1M
1C
0A
1P
1O
1%
1*
1)
0&
0'
