problem2/problem2/simulation/qsim/problem2.msim.vcd
$comment
	File created using the following command:
		vcd file problem2.msim.vcd -direction
$end
$date
	Mon Dec 04 02:25:41 2023
$end
$version
	ModelSim Version 10.1d
$end
$timescale
	1ps
$end
$scope module problem2_vlg_vec_tst $end
$var reg 8 ! A [7:0] $end
$var reg 8 " B [7:0] $end
$var reg 1 # Clock $end
$var reg 1 $ data_in $end
$var reg 1 % Enable_Decoder $end
$var reg 1 & FSM_Reset $end
$var reg 1 ' Reset_A $end
$var reg 1 ( Reset_B $end
$var wire 1 ) R_first_four [0] $end
$var wire 1 * R_first_four [1] $end
$var wire 1 + R_first_four [2] $end
$var wire 1 , R_first_four [3] $end
$var wire 1 - R_first_four [4] $end
$var wire 1 . R_first_four [5] $end
$var wire 1 / R_first_four [6] $end
$var wire 1 0 R_last_four [0] $end
$var wire 1 1 R_last_four [1] $end
$var wire 1 2 R_last_four [2] $end
$var wire 1 3 R_last_four [3] $end
$var wire 1 4 R_last_four [4] $end
$var wire 1 5 R_last_four [5] $end
$var wire 1 6 R_last_four [6] $end
$var wire 1 7 Sign [0] $end
$var wire 1 8 Sign [1] $end
$var wire 1 9 Sign [2] $end
$var wire 1 : Sign [3] $end
$var wire 1 ; Sign [4] $end
$var wire 1 < Sign [5] $end
$var wire 1 = Sign [6] $end
$var wire 1 > student_id [0] $end
$var wire 1 ? student_id [1] $end
$var wire 1 @ student_id [2] $end
$var wire 1 A student_id [3] $end
$var wire 1 B student_id [4] $end
$var wire 1 C student_id [5] $end
$var wire 1 D student_id [6] $end
$var wire 1 E sampler $end
$scope module i1 $end
$var wire 1 F gnd $end
$var wire 1 G vcc $end
$var wire 1 H unknown $end
$var tri1 1 I devclrn $end
$var tri1 1 J devpor $end
$var tri1 1 K devoe $end
$var wire 1 L inst7|Add1~3 $end
$var wire 1 M inst7|Add1~4_combout $end
$var wire 1 N inst7|Add1~5 $end
$var wire 1 O inst7|Add1~6_combout $end
$var wire 1 P inst7|Add1~7 $end
$var wire 1 Q inst7|Add1~8_combout $end
$var wire 1 R inst7|Add1~9 $end
$var wire 1 S inst7|Add2~4_combout $end
$var wire 1 T inst7|Add1~10_combout $end
$var wire 1 U inst7|Add1~11 $end
$var wire 1 V inst7|Add2~6_combout $end
$var wire 1 W inst7|Add0~9 $end
$var wire 1 X inst7|Add0~10_combout $end
$var wire 1 Y inst7|Add0~11 $end
$var wire 1 Z inst7|Add1~12_combout $end
$var wire 1 [ inst7|Add1~13 $end
$var wire 1 \ inst7|Add0~12_combout $end
$var wire 1 ] inst7|Add1~14_combout $end
$var wire 1 ^ inst7|Result~10_combout $end
$var wire 1 _ inst7|Result~15_combout $end
$var wire 1 ` inst7|Result~16_combout $end
$var wire 1 a inst7|Result~17_combout $end
$var wire 1 b inst7|Selector3~0_combout $end
$var wire 1 c inst7|Selector3~1_combout $end
$var wire 1 d inst7|Result~19_combout $end
$var wire 1 e inst7|Selector2~3_combout $end
$var wire 1 f inst7|Selector2~4_combout $end
$var wire 1 g inst7|Selector1~0_combout $end
$var wire 1 h Clock~combout $end
$var wire 1 i Reset_A~combout $end
$var wire 1 j Clock~clkctrl_outclk $end
$var wire 1 k inst5|yfsm.s1~0_combout $end
$var wire 1 l FSM_Reset~combout $end
$var wire 1 m data_in~combout $end
$var wire 1 n inst5|yfsm.s1~regout $end
$var wire 1 o inst5|yfsm.s2~regout $end
$var wire 1 p inst5|yfsm.s3~regout $end
$var wire 1 q inst5|yfsm.s4~regout $end
$var wire 1 r inst5|yfsm.s5~regout $end
$var wire 1 s inst5|yfsm.s6~regout $end
$var wire 1 t inst5|yfsm.s7~regout $end
$var wire 1 u inst5|yfsm.s8~regout $end
$var wire 1 v inst5|yfsm.s9~regout $end
$var wire 1 w inst5|yfsm.s10~regout $end
$var wire 1 x Reset_A~clk_delay_ctrl_clkout $end
$var wire 1 y Reset_A~clkctrl_outclk $end
$var wire 1 z Reset_B~combout $end
$var wire 1 { inst7|LessThan0~1_cout $end
$var wire 1 | inst7|LessThan0~3_cout $end
$var wire 1 } inst7|LessThan0~5_cout $end
$var wire 1 ~ inst7|LessThan0~7_cout $end
$var wire 1 !! inst7|LessThan0~9_cout $end
$var wire 1 "! inst7|LessThan0~11_cout $end
$var wire 1 #! inst7|LessThan0~13_cout $end
$var wire 1 $! inst7|LessThan0~14_combout $end
$var wire 1 %! inst7|Selector4~2_combout $end
$var wire 1 &! inst5|WideOr16~0_combout $end
$var wire 1 '! inst7|Selector4~3_combout $end
$var wire 1 (! inst7|Add1~0_combout $end
$var wire 1 )! inst5|WideOr14~0_combout $end
$var wire 1 *! inst7|Selector4~4_combout $end
$var wire 1 +! inst7|Selector4~5_combout $end
$var wire 1 ,! inst7|Selector4~6_combout $end
$var wire 1 -! inst5|WideOr15~0_combout $end
$var wire 1 .! inst7|Selector7~0_combout $end
$var wire 1 /! inst7|Selector7~1_combout $end
$var wire 1 0! Enable_Decoder~combout $end
$var wire 1 1! inst7|Result[3]~11_combout $end
$var wire 1 2! inst7|Result[3]~12_combout $end
$var wire 1 3! inst7|Add1~1 $end
$var wire 1 4! inst7|Add1~2_combout $end
$var wire 1 5! inst7|Selector6~2_combout $end
$var wire 1 6! inst7|Selector6~3_combout $end
$var wire 1 7! inst7|Result[3]~13_combout $end
$var wire 1 8! inst7|Result[3]~14_combout $end
$var wire 1 9! inst7|Selector6~4_combout $end
$var wire 1 :! inst7|Selector6~5_combout $end
$var wire 1 ;! inst7|Add0~0_combout $end
$var wire 1 <! inst7|Selector6~6_combout $end
$var wire 1 =! inst7|Selector6~8_combout $end
$var wire 1 >! inst7|Selector6~7_combout $end
$var wire 1 ?! inst7|Add2~0_combout $end
$var wire 1 @! inst7|Selector5~2_combout $end
$var wire 1 A! inst7|Selector5~3_combout $end
$var wire 1 B! inst7|Selector5~4_combout $end
$var wire 1 C! inst7|Selector5~5_combout $end
$var wire 1 D! inst7|Add0~1 $end
$var wire 1 E! inst7|Add0~2_combout $end
$var wire 1 F! inst7|Selector5~6_combout $end
$var wire 1 G! inst7|Selector5~8_combout $end
$var wire 1 H! inst7|Selector5~7_combout $end
$var wire 1 I! inst7|Add2~1 $end
$var wire 1 J! inst7|Add2~2_combout $end
$var wire 1 K! inst7|Selector4~7_combout $end
$var wire 1 L! inst7|Selector4~8_combout $end
$var wire 1 M! inst7|Selector4~9_combout $end
$var wire 1 N! inst7|Selector4~10_combout $end
$var wire 1 O! inst7|Add0~3 $end
$var wire 1 P! inst7|Add0~4_combout $end
$var wire 1 Q! inst7|Selector4~11_combout $end
$var wire 1 R! inst7|Selector4~13_combout $end
$var wire 1 S! inst7|Selector4~12_combout $end
$var wire 1 T! inst3|Mux0~0_combout $end
$var wire 1 U! inst3|Mux1~0_combout $end
$var wire 1 V! inst3|Mux2~0_combout $end
$var wire 1 W! inst3|Mux3~0_combout $end
$var wire 1 X! inst3|Mux4~0_combout $end
$var wire 1 Y! inst3|Mux5~0_combout $end
$var wire 1 Z! inst3|Mux6~0_combout $end
$var wire 1 [! inst7|Selector3~2_combout $end
$var wire 1 \! inst7|Add0~5 $end
$var wire 1 ]! inst7|Add0~6_combout $end
$var wire 1 ^! inst7|Selector3~3_combout $end
$var wire 1 _! inst5|yfsm.s0~0_combout $end
$var wire 1 `! inst5|yfsm.s0~regout $end
$var wire 1 a! inst7|Result[5]~18_combout $end
$var wire 1 b! inst7|Selector2~0_combout $end
$var wire 1 c! inst7|Selector2~1_combout $end
$var wire 1 d! inst7|Selector2~2_combout $end
$var wire 1 e! inst7|Selector3~4_combout $end
$var wire 1 f! inst7|Selector3~5_combout $end
$var wire 1 g! inst7|Selector2~5_combout $end
$var wire 1 h! inst7|Add0~7 $end
$var wire 1 i! inst7|Add0~8_combout $end
$var wire 1 j! inst7|Selector2~6_combout $end
$var wire 1 k! inst7|Selector2~7_combout $end
$var wire 1 l! inst7|Selector2~8_combout $end
$var wire 1 m! inst7|Result~21_combout $end
$var wire 1 n! inst7|Result[7]~22_combout $end
$var wire 1 o! inst7|Result[7]~20_combout $end
$var wire 1 p! inst7|Result[7]~27_combout $end
$var wire 1 q! inst7|Add2~3 $end
$var wire 1 r! inst7|Add2~5 $end
$var wire 1 s! inst7|Add2~7 $end
$var wire 1 t! inst7|Add2~8_combout $end
$var wire 1 u! inst7|Selector1~1_combout $end
$var wire 1 v! inst7|Result[7]~23_combout $end
$var wire 1 w! inst7|Result[7]~28_combout $end
$var wire 1 x! inst7|Result[7]~29_combout $end
$var wire 1 y! inst7|Selector1~2_combout $end
$var wire 1 z! inst7|Selector1~3_combout $end
$var wire 1 {! inst5|WideOr16~1_combout $end
$var wire 1 |! inst7|Result[7]~24_combout $end
$var wire 1 }! inst7|Result[7]~30_combout $end
$var wire 1 ~! inst7|Selector1~4_combout $end
$var wire 1 !" inst7|Selector1~5_combout $end
$var wire 1 "" inst7|Result[7]~25_combout $end
$var wire 1 #" inst7|Selector1~6_combout $end
$var wire 1 $" inst7|Result~26_combout $end
$var wire 1 %" inst7|Add2~9 $end
$var wire 1 &" inst7|Add2~10_combout $end
$var wire 1 '" inst7|Selector0~0_combout $end
$var wire 1 (" inst7|Selector0~1_combout $end
$var wire 1 )" inst7|Selector0~2_combout $end
$var wire 1 *" inst7|Selector0~3_combout $end
$var wire 1 +" inst7|Selector0~4_combout $end
$var wire 1 ," inst7|Selector0~5_combout $end
$var wire 1 -" inst4|Mux0~0_combout $end
$var wire 1 ." inst4|Mux1~0_combout $end
$var wire 1 /" inst4|Mux2~0_combout $end
$var wire 1 0" inst4|Mux3~0_combout $end
$var wire 1 1" inst4|Mux4~0_combout $end
$var wire 1 2" inst4|Mux5~0_combout $end
$var wire 1 3" inst4|Mux6~0_combout $end
$var wire 1 4" inst5|WideOr12~0_combout $end
$var wire 1 5" inst2|Mux0~0_combout $end
$var wire 1 6" inst2|Mux1~0_combout $end
$var wire 1 7" inst2|Mux3~0_combout $end
$var wire 1 8" inst5|WideOr12~combout $end
$var wire 1 9" inst2|Mux5~0_combout $end
$var wire 1 :" inst2|Mux6~0_combout $end
$var wire 1 ;" inst7|Result [7] $end
$var wire 1 <" inst7|Result [6] $end
$var wire 1 =" inst7|Result [5] $end
$var wire 1 >" inst7|Result [4] $end
$var wire 1 ?" inst7|Result [3] $end
$var wire 1 @" inst7|Result [2] $end
$var wire 1 A" inst7|Result [1] $end
$var wire 1 B" inst7|Result [0] $end
$var wire 1 C" inst|Q [7] $end
$var wire 1 D" inst|Q [6] $end
$var wire 1 E" inst|Q [5] $end
$var wire 1 F" inst|Q [4] $end
$var wire 1 G" inst|Q [3] $end
$var wire 1 H" inst|Q [2] $end
$var wire 1 I" inst|Q [1] $end
$var wire 1 J" inst|Q [0] $end
$var wire 1 K" B~combout [7] $end
$var wire 1 L" B~combout [6] $end
$var wire 1 M" B~combout [5] $end
$var wire 1 N" B~combout [4] $end
$var wire 1 O" B~combout [3] $end
$var wire 1 P" B~combout [2] $end
$var wire 1 Q" B~combout [1] $end
$var wire 1 R" B~combout [0] $end
$var wire 1 S" A~combout [7] $end
$var wire 1 T" A~combout [6] $end
$var wire 1 U" A~combout [5] $end
$var wire 1 V" A~combout [4] $end
$var wire 1 W" A~combout [3] $end
$var wire 1 X" A~combout [2] $end
$var wire 1 Y" A~combout [1] $end
$var wire 1 Z" A~combout [0] $end
$var wire 1 [" inst1|Q [7] $end
$var wire 1 \" inst1|Q [6] $end
$var wire 1 ]" inst1|Q [5] $end
$var wire 1 ^" inst1|Q [4] $end
$var wire 1 _" inst1|Q [3] $end
$var wire 1 `" inst1|Q [2] $end
$var wire 1 a" inst1|Q [1] $end
$var wire 1 b" inst1|Q [0] $end
$upscope $end
$upscope $end
$enddefinitions $end
#0
$dumpvars
b10 !
b10001 "
0#
1$
1%
0&
1'
1(
1/
0.
0-
0,
0+
0*
0)
16
05
04
03
02
01
00
1=
1<
1;
1:
19
18
17
1D
0C
0B
0A
0@
0?
0>
xE
0F
1G
xH
1I
1J
1K
1L
0M
0N
0O
1P
0Q
0R
1S
0T
1U
1V
0W
0X
1Y
0Z
0[
0\
0]
0^
0_
0`
0a
1b
0c
0d
1e
0f
0g
0h
1i
0j
1k
0l
1m
0n
0o
0p
0q
0r
0s
0t
0u
0v
0w
1x
1y
1z
0{
1|
0}
1~
0!!
1"!
0#!
0$!
0%!
1&!
0'!
0(!
1)!
0*!
0+!
0,!
1-!
0.!
0/!
10!
11!
02!
03!
04!
05!
06!
07!
08!
09!
0:!
1;!
0<!
0=!
0>!
1?!
0@!
0A!
0B!
0C!
0D!
0E!
0F!
0G!
0H!
0I!
1J!
0K!
0L!
0M!
0N!
1O!
0P!
0Q!
0R!
0S!
0T!
0U!
0V!
0W!
0X!
0Y!
0Z!
0[!
0\!
0]!
0^!
1_!
0`!
1a!
0b!
0c!
0d!
0e!
0f!
0g!
1h!
0i!
0j!
0k!
0l!
0m!
0n!
1o!
0p!
1q!
0r!
1s!
1t!
1u!
0v!
0w!
0x!
1y!
0z!
0{!
1|!
0}!
0~!
0!"
0""
0#"
0$"
0%"
1&"
1'"
1("
0)"
0*"
0+"
0,"
0-"
0."
0/"
00"
01"
02"
03"
14"
15"
06"
17"
18"
09"
1:"
0B"
0A"
0@"
0?"
0>"
0="
0<"
0;"
0J"
0I"
0H"
0G"
0F"
0E"
0D"
0C"
1R"
0Q"
0P"
0O"
1N"
0M"
0L"
0K"
0Z"
1Y"
0X"
0W"
0V"
0U"
0T"
0S"
0b"
0a"
0`"
0_"
0^"
0]"
0\"
0["
$end
#10000
1#
1h
1j
0E
1`!
1I"
1^"
1b"
1n
1b!
0k
1D!
0;!
1^
14!
1C!
1!!
1c
1a
1Q
1(!
1%!
1{
1v!
0o!
1E!
1F!
0"!
1r!
0S
1'!
1w!
1p!
1#!
0s!
0V
1*!
1)"
1z!
1$!
1%"
0t!
1.!
1*"
1~!
12!
0%!
0&"
0u!
1+"
1!"
1K!
1@!
15!
0e
0b
0'!
0'"
0y!
16!
0c
0*!
0("
0z!
19!
0.!
0)"
0~!
1=!
0*"
0!"
0+"
#20000
0#
0h
0j
1E
#30000
1#
1h
1j
0E
1o
0n
0:"
0-!
0&!
04"
0v!
1o!
1c!
0a!
1>!
1}!
1x!
0w!
1d!
1G!
18!
1{!
1g!
1[!
1N!
1:!
01!
1+!
08"
16"
1""
0D
1H!
09!
1L!
0K!
0@!
05!
1?
1B
0=!
0L!
06!
0>!
#40000
0#
0h
0j
1E
#50000
1#
1h
1j
0E
1@"
1p
0o
1Z!
1X!
1W!
1T!
14"
1:"
19"
07"
06"
05"
1&!
09"
18"
17"
15"
0}!
0{!
1j!
0g!
0[!
1Q!
0N!
0:!
11!
1,!
0+!
1-
1,
1)
1D
1C
0?
0/
1A
1>
1k!
0j!
1R!
0Q!
1K!
1@!
15!
1.!
0,!
0C
0B
0A
0>
1l!
0k!
1S!
0R!
16!
1/!
0.!
0l!
0S!
0/!
#60000
0#
0h
0j
1E
#70000
1#
1h
1j
0E
1q
0p
0&!
04"
1-!
1}!
1{!
1g!
1[!
1N!
1:!
01!
1+!
19"
08"
07"
05"
0p!
0d!
0G!
08!
0|!
1L!
0K!
0@!
05!
0H!
19!
1C
1B
1A
1>
1M!
0L!
06!
1=!
1R!
0M!
09!
1>!
1S!
0R!
0=!
0S!
0>!
#80000
0#
0h
0j
1E
#90000
1#
1h
1j
0E
0@"
1r
0q
0Z!
0X!
0W!
0T!
1&!
0}!
0{!
1j!
0g!
0[!
1Q!
0N!
0:!
11!
1,!
0+!
0-
0,
0)
1/
1*"
1~!
1|!
0j!
0Q!
1K!
1@!
15!
0,!
1+"
1!"
0*"
0~!
16!
1,"
1#"
0+"
0!"
19!
0,"
0#"
1=!
1>!
#100000
0#
0h
0j
1E
#110000
1#
1h
1j
0E
1A"
1s
0r
1Z!
1Y!
1V!
15"
0-!
0)!
0&!
1}!
1p!
1d!
1G!
18!
1v!
0o!
1n!
0b!
0C!
01!
1b
1{!
1.
1+
0/
0>
1H!
0|!
09!
1w!
1+"
0F!
1L!
0K!
0@!
05!
1c
0=!
1("
1,"
0G!
0L!
06!
0>!
1)"
0H!
#120000
0#
0h
0j
1E
#130000
1#
1h
1j
0E
1;"
0A"
1t
0s
13"
0Z!
0Y!
0V!
14"
05"
1&!
09"
18"
17"
15"
0{!
0n!
1N!
02!
0.
0+
06
1/
1>
1|!
0+"
0}!
1Q!
1K!
1@!
15!
0b
0C
0B
0A
0>
1*"
0,"
1R!
1L!
1A!
16!
0c
1+"
1S!
1,"
#140000
0#
0h
0j
1E
#150000
1#
1h
1j
0E
1?"
1u
0t
1Z!
0:"
19"
0&!
04"
1-!
1@
1}!
1{!
1n!
0Q!
0N!
17!
12!
0x!
0d!
0R!
08!
1*!
0D
1C
0/
0*"
0|!
0+"
0}!
19!
0K!
0A!
0@!
05!
1b
0("
0S!
1.!
1+"
1*"
1~!
0,"
1=!
0L!
06!
1c
0)"
1/!
1,"
0+"
1>!
1e!
0,"
1f!
#160000
0#
0h
0j
1E
#170000
1#
1h
1j
0E
0;"
1>"
0?"
1A"
1B"
1v
0u
03"
12"
11"
10"
1-"
1Y!
1X!
1:"
08"
07"
05"
1&!
0@
0{!
0n!
1N!
07!
02!
15
14
13
10
1.
1-
1D
16
1B
1A
1>
1|!
1+"
1!"
1Q!
09!
1K!
1@!
15!
0b
0*"
0~!
1,"
1#"
0=!
1L!
1A!
16!
0c
0+"
0!"
0>!
1M!
1B!
19!
0e!
0,"
0#"
1R!
1G!
1=!
0f!
1S!
1H!
1>!
#180000
0#
0h
0j
1E
#190000
1#
1h
1j
0E
0>"
1?"
1@"
1w
0v
02"
01"
00"
0-"
0Y!
0X!
1W!
1V!
1U!
1}!
1{!
1x!
1n!
1a!
0_!
18!
17!
1)!
0|!
1("
1+"
0""
0M!
0B!
09!
0v!
1o!
0n!
1b!
0N!
1C!
12!
11!
0*!
1e
1b
05
04
03
00
0.
0-
1,
1+
1*
1)"
0w!
1g
0+"
1|!
0c!
0Q!
1F!
0A!
0e
0b
0L!
1c
0.!
0("
1,"
1#"
1d!
0c
0)"
1k!
1e!
1l!
1f!
#200000
0#
0h
0j
1E
#210000
1#
1h
1j
0E
1;"
1<"
1="
1>"
0`!
0w
13"
10"
1/"
1."
14"
1c!
0b!
0S!
0H!
0>!
1k
0}!
0{!
0p!
0d!
1_!
0R!
0G!
0=!
08!
07!
0/!
09"
18"
17"
15"
0c!
0g
0k!
0e!
19!
13
12
11
06
0,"
0#"
0l!
0f!
1=!
0C
0B
0A
0>
#220000
0#
0h
0j
1E
