problem1/problem1/simulation/qsim/problem1.msim.vcd
$comment
	File created using the following command:
		vcd file problem1.msim.vcd -direction
$end
$date
	Wed Nov 29 01:46:54 2023
$end
$version
	ModelSim Version 10.1d
$end
$timescale
	1ps
$end
$scope module problem1_vlg_vec_tst $end
$var reg 8 ! A [7:0] $end
$var reg 8 " B [7:0] $end
$var reg 1 # Clock $end
$var reg 1 $ data_in $end
$var reg 1 % Enable_Decoder $end
$var reg 1 & FSM_reset $end
$var reg 1 ' Reset_A $end
$var reg 1 ( Reset_B $end
$var wire 1 ) R_first_four [0] $end
$var wire 1 * R_first_four [1] $end
$var wire 1 + R_first_four [2] $end
$var wire 1 , R_first_four [3] $end
$var wire 1 - R_first_four [4] $end
$var wire 1 . R_first_four [5] $end
$var wire 1 / R_first_four [6] $end
$var wire 1 0 R_last_four [0] $end
$var wire 1 1 R_last_four [1] $end
$var wire 1 2 R_last_four [2] $end
$var wire 1 3 R_last_four [3] $end
$var wire 1 4 R_last_four [4] $end
$var wire 1 5 R_last_four [5] $end
$var wire 1 6 R_last_four [6] $end
$var wire 1 7 Sign [0] $end
$var wire 1 8 Sign [1] $end
$var wire 1 9 Sign [2] $end
$var wire 1 : Sign [3] $end
$var wire 1 ; Sign [4] $end
$var wire 1 < Sign [5] $end
$var wire 1 = Sign [6] $end
$var wire 1 > student_id [0] $end
$var wire 1 ? student_id [1] $end
$var wire 1 @ student_id [2] $end
$var wire 1 A student_id [3] $end
$var wire 1 B student_id [4] $end
$var wire 1 C student_id [5] $end
$var wire 1 D student_id [6] $end
$var wire 1 E sampler $end
$scope module i1 $end
$var wire 1 F gnd $end
$var wire 1 G vcc $end
$var wire 1 H unknown $end
$var tri1 1 I devclrn $end
$var tri1 1 J devpor $end
$var tri1 1 K devoe $end
$var wire 1 L inst|Add0~0_combout $end
$var wire 1 M inst|Add2~2_combout $end
$var wire 1 N inst|Add0~4_combout $end
$var wire 1 O inst|Add2~8_combout $end
$var wire 1 P inst|Add1~10_combout $end
$var wire 1 Q inst|Add2~13 $end
$var wire 1 R inst|Add1~12_combout $end
$var wire 1 S inst|Add2~14_combout $end
$var wire 1 T inst|Selector7~2_combout $end
$var wire 1 U inst|Selector7~3_combout $end
$var wire 1 V inst|Result~0_combout $end
$var wire 1 W inst|Selector5~1_combout $end
$var wire 1 X inst|Selector5~2_combout $end
$var wire 1 Y inst|Result~5_combout $end
$var wire 1 Z inst|Selector3~3_combout $end
$var wire 1 [ inst|Selector0~0_combout $end
$var wire 1 \ inst|Selector8~1_combout $end
$var wire 1 ] inst|Selector8~2_combout $end
$var wire 1 ^ inst|Selector8~3_combout $end
$var wire 1 _ inst1|yfsm.s0~0_combout $end
$var wire 1 ` FSM_reset~combout $end
$var wire 1 a FSM_reset~clkctrl_outclk $end
$var wire 1 b data_in~combout $end
$var wire 1 c inst1|yfsm.s0~regout $end
$var wire 1 d inst1|yfsm.s1~0_combout $end
$var wire 1 e inst1|yfsm.s1~regout $end
$var wire 1 f inst1|yfsm.s2~regout $end
$var wire 1 g inst1|yfsm.s3~regout $end
$var wire 1 h inst1|yfsm.s4~regout $end
$var wire 1 i inst1|yfsm.s5~feeder_combout $end
$var wire 1 j inst1|yfsm.s5~regout $end
$var wire 1 k inst1|yfsm.s6~regout $end
$var wire 1 l inst1|yfsm.s7~regout $end
$var wire 1 m inst1|yfsm.s8~regout $end
$var wire 1 n inst1|yfsm.s9~feeder_combout $end
$var wire 1 o inst1|yfsm.s9~regout $end
$var wire 1 p inst1|yfsm.s10~regout $end
$var wire 1 q Enable_Decoder~combout $end
$var wire 1 r inst|Selector7~0_combout $end
$var wire 1 s inst|Selector8~0_combout $end
$var wire 1 t Reset_B~combout $end
$var wire 1 u Reset_B~clkctrl_outclk $end
$var wire 1 v inst4|Q[0]~feeder_combout $end
$var wire 1 w Reset_A~combout $end
$var wire 1 x Reset_A~clkctrl_outclk $end
$var wire 1 y inst1|WideOr14~0_combout $end
$var wire 1 z inst|Selector7~6_combout $end
$var wire 1 { inst1|WideOr15~combout $end
$var wire 1 | inst|Add1~0_combout $end
$var wire 1 } inst4|Q[1]~feeder_combout $end
$var wire 1 ~ inst|LessThan0~1_cout $end
$var wire 1 !! inst|LessThan0~3_cout $end
$var wire 1 "! inst|LessThan0~5_cout $end
$var wire 1 #! inst|LessThan0~7_cout $end
$var wire 1 $! inst|LessThan0~9_cout $end
$var wire 1 %! inst|LessThan0~11_cout $end
$var wire 1 &! inst|LessThan0~13_cout $end
$var wire 1 '! inst|LessThan0~14_combout $end
$var wire 1 (! inst|Add2~0_combout $end
$var wire 1 )! inst|Selector7~1_combout $end
$var wire 1 *! inst|Selector7~7_combout $end
$var wire 1 +! inst|Selector7~4_combout $end
$var wire 1 ,! inst|Selector7~5_combout $end
$var wire 1 -! inst|Selector5~0_combout $end
$var wire 1 .! inst|Result[3]~2_combout $end
$var wire 1 /! inst|Result[3]~1_combout $end
$var wire 1 0! inst|Result[3]~3_combout $end
$var wire 1 1! inst|Add2~1 $end
$var wire 1 2! inst|Add2~3 $end
$var wire 1 3! inst|Add2~4_combout $end
$var wire 1 4! inst|Selector5~3_combout $end
$var wire 1 5! inst|Add1~1 $end
$var wire 1 6! inst|Add1~3 $end
$var wire 1 7! inst|Add1~4_combout $end
$var wire 1 8! inst|Selector5~4_combout $end
$var wire 1 9! inst|Result[3]~4_combout $end
$var wire 1 :! inst|Selector5~5_combout $end
$var wire 1 ;! inst|Selector5~6_combout $end
$var wire 1 <! inst|Selector5~7_combout $end
$var wire 1 =! inst|Selector6~3_combout $end
$var wire 1 >! inst|Add0~1 $end
$var wire 1 ?! inst|Add0~2_combout $end
$var wire 1 @! inst|Add1~2_combout $end
$var wire 1 A! inst|Selector6~0_combout $end
$var wire 1 B! inst|Selector6~1_combout $end
$var wire 1 C! inst|Selector6~2_combout $end
$var wire 1 D! inst|Selector6~4_combout $end
$var wire 1 E! inst|Selector6~5_combout $end
$var wire 1 F! inst|Selector4~3_combout $end
$var wire 1 G! inst|Add0~3 $end
$var wire 1 H! inst|Add0~5 $end
$var wire 1 I! inst|Add0~6_combout $end
$var wire 1 J! inst|Add1~5 $end
$var wire 1 K! inst|Add1~6_combout $end
$var wire 1 L! inst|Add2~5 $end
$var wire 1 M! inst|Add2~6_combout $end
$var wire 1 N! inst|Selector4~0_combout $end
$var wire 1 O! inst|Selector4~1_combout $end
$var wire 1 P! inst|Selector4~2_combout $end
$var wire 1 Q! inst|Selector4~4_combout $end
$var wire 1 R! inst|Selector4~5_combout $end
$var wire 1 S! inst9|Mux0~0_combout $end
$var wire 1 T! inst9|Mux1~0_combout $end
$var wire 1 U! inst9|Mux2~0_combout $end
$var wire 1 V! inst9|Mux3~0_combout $end
$var wire 1 W! inst9|Mux4~0_combout $end
$var wire 1 X! inst9|Mux5~0_combout $end
$var wire 1 Y! inst9|Mux6~0_combout $end
$var wire 1 Z! inst|Add0~7 $end
$var wire 1 [! inst|Add0~9 $end
$var wire 1 \! inst|Add0~10_combout $end
$var wire 1 ]! inst|Selector2~5_combout $end
$var wire 1 ^! inst|Selector2~8_combout $end
$var wire 1 _! inst|Selector2~3_combout $end
$var wire 1 `! inst|Add2~7 $end
$var wire 1 a! inst|Add2~9 $end
$var wire 1 b! inst|Add2~10_combout $end
$var wire 1 c! inst|Selector2~2_combout $end
$var wire 1 d! inst|Selector2~4_combout $end
$var wire 1 e! inst|Selector2~6_combout $end
$var wire 1 f! inst|Selector2~7_combout $end
$var wire 1 g! inst|Add0~11 $end
$var wire 1 h! inst|Add0~13 $end
$var wire 1 i! inst|Add0~14_combout $end
$var wire 1 j! inst|Selector0~1_combout $end
$var wire 1 k! inst|Add1~7 $end
$var wire 1 l! inst|Add1~9 $end
$var wire 1 m! inst|Add1~11 $end
$var wire 1 n! inst|Add1~13 $end
$var wire 1 o! inst|Add1~14_combout $end
$var wire 1 p! inst|Selector0~2_combout $end
$var wire 1 q! inst|Selector0~3_combout $end
$var wire 1 r! inst|Selector0~4_combout $end
$var wire 1 s! inst|Selector0~5_combout $end
$var wire 1 t! inst|Selector1~3_combout $end
$var wire 1 u! inst|Result~7_combout $end
$var wire 1 v! inst|Add0~12_combout $end
$var wire 1 w! inst|Add2~11 $end
$var wire 1 x! inst|Add2~12_combout $end
$var wire 1 y! inst|Selector1~0_combout $end
$var wire 1 z! inst|Selector1~1_combout $end
$var wire 1 {! inst|Selector1~2_combout $end
$var wire 1 |! inst|Selector1~4_combout $end
$var wire 1 }! inst|Selector1~5_combout $end
$var wire 1 ~! inst|Result~6_combout $end
$var wire 1 !" inst|Add0~8_combout $end
$var wire 1 "" inst|Add1~8_combout $end
$var wire 1 #" inst|Selector3~0_combout $end
$var wire 1 $" inst|Selector3~1_combout $end
$var wire 1 %" inst|Selector3~2_combout $end
$var wire 1 &" inst|Selector3~4_combout $end
$var wire 1 '" inst|Selector3~5_combout $end
$var wire 1 (" inst10|Mux0~0_combout $end
$var wire 1 )" inst10|Mux1~0_combout $end
$var wire 1 *" inst10|Mux2~0_combout $end
$var wire 1 +" inst10|Mux3~0_combout $end
$var wire 1 ," inst10|Mux4~0_combout $end
$var wire 1 -" inst10|Mux5~0_combout $end
$var wire 1 ." inst10|Mux6~0_combout $end
$var wire 1 /" Clock~combout $end
$var wire 1 0" Clock~clkctrl_outclk $end
$var wire 1 1" inst|Selector8~5_combout $end
$var wire 1 2" inst|Selector8~4_combout $end
$var wire 1 3" inst|Selector8~6_combout $end
$var wire 1 4" inst|Neg~regout $end
$var wire 1 5" inst1|WideOr12~0_combout $end
$var wire 1 6" inst3|Mux0~0_combout $end
$var wire 1 7" inst3|Mux1~0_combout $end
$var wire 1 8" inst3|Mux3~0_combout $end
$var wire 1 9" inst1|WideOr12~combout $end
$var wire 1 :" inst3|Mux5~0_combout $end
$var wire 1 ;" inst3|Mux6~0_combout $end
$var wire 1 <" inst|Result [7] $end
$var wire 1 =" inst|Result [6] $end
$var wire 1 >" inst|Result [5] $end
$var wire 1 ?" inst|Result [4] $end
$var wire 1 @" inst|Result [3] $end
$var wire 1 A" inst|Result [2] $end
$var wire 1 B" inst|Result [1] $end
$var wire 1 C" inst|Result [0] $end
$var wire 1 D" inst4|Q [7] $end
$var wire 1 E" inst4|Q [6] $end
$var wire 1 F" inst4|Q [5] $end
$var wire 1 G" inst4|Q [4] $end
$var wire 1 H" inst4|Q [3] $end
$var wire 1 I" inst4|Q [2] $end
$var wire 1 J" inst4|Q [1] $end
$var wire 1 K" inst4|Q [0] $end
$var wire 1 L" B~combout [7] $end
$var wire 1 M" B~combout [6] $end
$var wire 1 N" B~combout [5] $end
$var wire 1 O" B~combout [4] $end
$var wire 1 P" B~combout [3] $end
$var wire 1 Q" B~combout [2] $end
$var wire 1 R" B~combout [1] $end
$var wire 1 S" B~combout [0] $end
$var wire 1 T" A~combout [7] $end
$var wire 1 U" A~combout [6] $end
$var wire 1 V" A~combout [5] $end
$var wire 1 W" A~combout [4] $end
$var wire 1 X" A~combout [3] $end
$var wire 1 Y" A~combout [2] $end
$var wire 1 Z" A~combout [1] $end
$var wire 1 [" A~combout [0] $end
$var wire 1 \" inst5|Q [7] $end
$var wire 1 ]" inst5|Q [6] $end
$var wire 1 ^" inst5|Q [5] $end
$var wire 1 _" inst5|Q [4] $end
$var wire 1 `" inst5|Q [3] $end
$var wire 1 a" inst5|Q [2] $end
$var wire 1 b" inst5|Q [1] $end
$var wire 1 c" inst5|Q [0] $end
$upscope $end
$upscope $end
$enddefinitions $end
#0
$dumpvars
b10 !
b10001 "
0#
1$
1%
0&
1'
1(
xH
1I
1J
1K
0L
0M
0N
0O
0P
1Q
0R
0S
1T
1U
0V
0W
0X
0Y
0Z
0[
1\
1]
0^
1_
0`
0a
1b
0c
1d
0e
0f
0g
0h
0i
0j
0k
0l
0m
0n
0o
0p
1q
0r
1s
1t
1u
0v
1w
1x
1y
1z
0{
0|
1}
0~
1!!
0"!
1#!
0$!
1%!
0&!
0'!
0(!
0)!
1*!
0+!
0,!
0-!
0.!
0/!
00!
11!
02!
03!
14!
15!
06!
07!
08!
09!
1:!
1;!
0<!
0=!
0>!
0?!
0@!
0A!
1B!
1C!
1D!
0E!
0F!
1G!
0H!
0I!
1J!
0K!
1L!
0M!
0N!
1O!
1P!
1Q!
0R!
0S!
0T!
0U!
0V!
0W!
0X!
0Y!
1Z!
0[!
0\!
0]!
0^!
1_!
0`!
1a!
0b!
0c!
1d!
1e!
0f!
1g!
0h!
0i!
0j!
0k!
1l!
0m!
1n!
0o!
0p!
1q!
1r!
0s!
0t!
0u!
0v!
0w!
0x!
0y!
1z!
1{!
1|!
0}!
0~!
0!"
0""
0#"
1$"
1%"
1&"
0'"
0("
0)"
0*"
0+"
0,"
0-"
0."
0/"
00"
01"
02"
03"
04"
15"
16"
07"
18"
19"
0:"
1;"
0C"
0B"
0A"
0@"
0?"
0>"
0="
0<"
0K"
0J"
0I"
0H"
0G"
0F"
0E"
0D"
1S"
0R"
0Q"
0P"
1O"
0N"
0M"
0L"
0["
1Z"
0Y"
0X"
0W"
0V"
0U"
0T"
0c"
0b"
0a"
0`"
0_"
0^"
0]"
0\"
1/
0.
0-
0,
0+
0*
0)
16
05
04
03
02
01
00
1=
1<
1;
1:
19
18
17
1D
0C
0B
0A
0@
0?
0>
xE
0F
1G
$end
#10000
1#
1/"
10"
0E
1J"
1_"
1c"
1e
1c
1?!
1=!
16!
1@!
1V
1M
1~!
1""
1!"
1$!
1Z
0a!
1O
01!
1(!
1~
1|
1L
0d
0\
0J!
17!
0%!
1w!
1b!
0M
1)!
0]
1k!
1K!
1&!
0Q
1x!
1c!
0""
1'!
1S
11"
#20000
0#
0/"
00"
1E
#30000
1#
1/"
10"
0E
1f
0e
0;"
1{
0s
05"
1'"
1}!
1f!
1R!
1E!
1-!
1r
1t!
1]!
1F!
0=!
19!
1.!
1[
0Z
1W
0T
1+!
09"
17"
1s!
1<!
18!
0D
1#"
1y!
1p!
0c!
1N!
1A!
0{!
0s!
0e!
0P!
0<!
1,!
1?
1B
0B!
0|!
0f!
0Q!
0}!
0R!
#40000
0#
0/"
00"
1E
#50000
1#
1/"
10"
0E
1?"
1B"
1C"
1g
0f
1-"
1,"
1+"
1("
1Y!
1X!
1W!
15"
12"
1;"
1:"
08"
07"
06"
1s
0:"
19"
18"
16"
13"
0t!
0]!
0F!
10!
0.!
0[
0W
15
14
13
10
1.
1-
1D
1C
0?
0/
1A
1>
0#"
0y!
0p!
0d!
1B!
04!
1{!
1s!
1e!
1P!
0C!
1<!
0C
0B
0A
0>
0$"
0z!
0q!
0e!
1C!
1|!
1f!
1Q!
0D!
0%"
0{!
0r!
0f!
1D!
1}!
1R!
0E!
0&"
0|!
0s!
1E!
0'"
0}!
#60000
0#
0/"
00"
1E
#70000
1#
1/"
10"
0E
14"
0?"
1@"
1A"
1h
0g
0-"
0,"
0+"
0("
0X!
0W!
1V!
1U!
1T!
0s
1i
05"
02"
0{
0=
03"
1=!
00!
1Z
1:"
09"
08"
06"
0U
1T
05
04
03
00
0.
0-
1,
1+
1*
1$"
1#"
1z!
1y!
1q!
1p!
1d!
0B!
14!
0+!
1U
1C
1B
1A
1>
1%"
1{!
1r!
1e!
0C!
0,!
1+!
1&"
1|!
1s!
1f!
0D!
1,!
1'"
1}!
0E!
#80000
0#
0/"
00"
1E
#90000
1#
1/"
10"
0E
04"
1?"
1="
1<"
1>"
0B"
1j
0h
1."
1+"
1*"
1)"
1X!
0V!
0U!
0T!
1S!
1s
0i
1=
09!
13
12
11
1.
0,
0+
0*
1)
06
0#"
0y!
0p!
1c!
0N!
0A!
1B!
1C!
1D!
1E!
#100000
0#
0/"
00"
1E
#110000
1#
1/"
10"
0E
1B"
1k
0j
0X!
1V!
1U!
1T!
0S!
16"
1{
0y
0s
1t!
1]!
1F!
0=!
19!
1.!
0z
1[
0Z
1W
0T
1/!
0)!
0.
1,
1+
1*
0)
0>
1^!
0D!
1#"
1y!
1p!
0c!
1N!
1A!
0s!
0e!
0<!
0*!
1j!
0&"
1X
0U
1e!
0E!
0B!
0f!
0+!
1s!
0'"
1<!
1f!
0,!
#120000
0#
0/"
00"
1E
#130000
1#
1/"
10"
0E
0?"
0B"
0C"
1l
0k
0+"
0Y!
0V!
15"
01"
06"
1s
0:"
19"
18"
16"
0t!
0]!
0F!
10!
0[
0W
03
0,
1/
1>
0|!
0^!
0Q!
0#"
0y!
0p!
1B!
04!
0j!
0X
0C
0B
0A
0>
0}!
0e!
0R!
0$"
0z!
0q!
0s!
0<!
0f!
#140000
0#
0/"
00"
1E
#150000
1#
1/"
10"
0E
0="
0<"
0>"
0@"
0A"
1m
0l
0."
0*"
0)"
0U!
0T!
0;"
1:"
0s
1n
05"
11"
0{
1@
1=!
00!
1Z
1z
1U
02
01
0+
0*
0D
1C
16
1D!
1$"
1#"
1z!
1y!
1q!
1p!
0B!
14!
1&"
1*!
1+!
1E!
1'"
1,!
#160000
0#
0/"
00"
1E
#170000
1#
1/"
10"
0E
1?"
1B"
1C"
1o
0m
1-"
1,"
1+"
1("
1Y!
1X!
1W!
01"
1;"
09"
08"
06"
1s
0n
0@
09!
15
14
13
10
1.
1-
1D
0/
1B
1A
1>
0#"
0y!
0p!
1c!
0N!
0A!
1B!
#180000
0#
0/"
00"
1E
#190000
1#
1/"
10"
0E
1p
0o
0r
0_
1]
1y
0+!
0.!
1)!
0]
0U
1T
0,!
0%"
0{!
1s!
1e!
0P!
0C!
1<!
1U
0&"
1|!
1f!
1Q!
0D!
0'"
1}!
1R!
0E!
#200000
0#
0/"
00"
1E
#210000
1#
1/"
10"
0E
0?"
1="
1<"
1>"
1@"
0B"
1A"
0C"
0p
0c
1."
0-"
0,"
0+"
1*"
1)"
0("
0Y!
0X!
0W!
1U!
1T!
11"
0/!
1_
15"
0}!
0f!
0R!
0-!
1d
1\
1%"
0|!
1{!
0Q!
1P!
1C!
0:"
19"
18"
16"
0s!
0<!
08!
1]
05
04
03
12
11
00
0.
0-
1+
1*
06
1/
1&"
1|!
1Q!
1D!
0C
0B
0A
0>
#220000
0#
0/"
00"
1E
